^C:\USERS\DZIALAJ\DOCUMENTS\LOGICGAME\LOGICGAME\X64\DEBUG\LOGICGAME.OBJ|C:\USERS\DZIALAJ\DOCUMENTS\LOGICGAME\LOGICGAME\X64\DEBUG\PCH.OBJ
C:\USERS\DZIALAJ\DOCUMENTS\LOGICGAME\X64\DEBUG\LOGICGAME.EXE
C:\USERS\DZIALAJ\DOCUMENTS\LOGICGAME\X64\DEBUG\LOGICGAME.ILK
C:\USERS\DZIALAJ\DOCUMENTS\LOGICGAME\X64\DEBUG\LOGICGAME.PDB
